Stokes I Simultaneous Image and Instrument Modeling | Comrade.jl
…
Now that we have our posterior, we can put error bars on all of our plots above. Let's start by finding the mean and standard deviation of the gain phases
julia
mchain = Comrade.rmap(mean, chain);
schain = Comrade.rmap(std, chain);

Now we can use the measurements package to automatically plot everything with error bars. First we create a caltable the same way but making sure all of our variables have errors attached to them.
julia
using Measurements
gmeas = instrumentmodel(post, (; instrument = map((x, y) -> Measurements.measurement.(x, y), mchain.instrument, schain.instrument)))
ctable_am = caltable(abs.(gmeas))
ctable_ph = caltable(angle.(gmeas))

┌─────────┬───────────────────┬─────────┬──────────────┬───────────┬────────────
│      Ti │                Fr │      AA │           AP │        AZ │         J ⋯
│     Any │               Any │     Any │          Any │       Any │        An ⋯
├─────────┼───────────────────┼─────────┼──────────────┼───────────┼────────────
│ 0.92 hr │ 227.070705664 GHz │ 0.0±0.0 │      missing │   missing │    missin ⋯
│ 1.22 hr │ 227.070705664 GHz │ 0.0±0.0 │ -2.192±0.017 │   missing │    missin ⋯
│ 1.52 hr │ 227.070705664 GHz │ 0.0±0.0 │ -2.244±0.017 │   missing │    missin ⋯
│ 1.82 hr │ 227.070705664 GHz │ 0.0±0.0 │ -2.278±0.017 │   missing │    missin ⋯
│ 2.12 hr │ 227.070705664 GHz │ 0.0±0.0 │ -2.331±0.017 │   missing │    missin ⋯
│ 2.45 hr │ 227.070705664 GHz │ missing │      0.0±0.0 │   missing │    missin ⋯
│ 2.75 hr │ 227.070705664 GHz │ 0.0±0.0 │ -2.402±0.019 │   missing │    missin ⋯
│ 3.05 hr │ 227.070705664 GHz │ 0.0±0.0 │ -2.434±0.017 │   missing │    missin ⋯
│ 3.35 hr │ 227.070705664 GHz │ 0.0±0.0 │ -2.466±0.016 │   missing │    missin ⋯
│ 3.68 hr │ 227.070705664 GHz │ 0.0±0.0 │  -2.47±0.019 │  0.98±0.2 │    missin ⋯
│ 3.98 hr │ 227.070705664 GHz │ 0.0±0.0 │ -2.437±0.019 │  0.85±0.2 │    missin ⋯
│ 4.28 hr │ 227.070705664 GHz │ 0.0±0.0 │ -2.468±0.018 │   0.7±0.2 │    missin ⋯
│ 4.58 hr │ 227.070705664 GHz │ 0.0±0.0 │ -2.373±0.019 │ 0.52±0.21 │ -0.72±0.2 ⋯
│ 4.92 hr │ 227.070705664 GHz │ 0.0±0.0 │ -2.423±0.019 │ 0.32±0.21 │ -0.54±0.2 ⋯
│ 5.18 hr │ 227.070705664 GHz │ 0.0±0.0 │  -2.386±0.02 │ 0.15±0.21 │  -0.4±0.2 ⋯
│       ⋮ │                 ⋮ │       ⋮ │            ⋮ │         ⋮ │           ⋱
└─────────┴───────────────────┴─────────┴──────────────┴───────────┴────────────
                                                   4 columns and 10 rows omitted
…
