Polarized Image and Instrumental Modeling | Comrade.jl
…
Note
The image looks a little noisy. This is an artifact of the MAP image. To get a publication quality image we recommend sampling from the posterior and averaging the samples. The results will be essentially identical to the results from EHTC VII.

We can also analyze the instrument model. For example, we can look at the gain ratios and products. To grab the ratios and products we can use the caltable function which will return analyze the gprat array and convert it to a uniform table. We can then plot the gain phases and amplitudes.
julia
gphase_ratio = caltable(xopt.instrument.gprat)
gamp_ratio = caltable(exp.(xopt.instrument.lgrat))

┌─────────┬───────────────────┬─────────┬─────────┬─────────┬─────────┬─────────
│      Ti │                Fr │      AA │      AP │      AZ │      JC │      L ⋯
│     Any │               Any │     Any │     Any │     Any │     Any │     An ⋯
├─────────┼───────────────────┼─────────┼─────────┼─────────┼─────────┼─────────
│ 0.92 hr │ 227.070705664 GHz │   1.089 │ missing │ missing │ missing │ missin ⋯
│ 1.22 hr │ 227.070705664 GHz │   1.088 │   1.014 │ missing │ missing │   0.97 ⋯
│ 1.52 hr │ 227.070705664 GHz │   1.056 │   1.068 │ missing │ missing │   1.01 ⋯
│ 1.82 hr │ 227.070705664 GHz │    1.06 │    0.99 │ missing │ missing │   1.02 ⋯
│ 2.12 hr │ 227.070705664 GHz │    0.93 │   0.876 │ missing │ missing │   1.10 ⋯
│ 2.45 hr │ 227.070705664 GHz │ missing │   1.056 │ missing │ missing │   1.13 ⋯
│ 2.75 hr │ 227.070705664 GHz │   1.035 │   0.969 │ missing │ missing │   1.06 ⋯
│ 3.05 hr │ 227.070705664 GHz │    0.98 │   0.946 │ missing │ missing │   1.15 ⋯
│ 3.35 hr │ 227.070705664 GHz │   1.008 │   1.042 │ missing │ missing │    1.1 ⋯
│ 3.68 hr │ 227.070705664 GHz │   1.014 │   0.911 │   1.026 │ missing │   1.12 ⋯
│ 3.98 hr │ 227.070705664 GHz │   1.024 │   0.931 │   0.996 │ missing │    1.1 ⋯
│ 4.28 hr │ 227.070705664 GHz │     1.0 │   0.979 │   1.018 │ missing │    1.0 ⋯
│ 4.58 hr │ 227.070705664 GHz │   0.981 │   1.005 │   1.035 │     1.0 │   1.05 ⋯
│ 4.92 hr │ 227.070705664 GHz │   0.985 │   0.903 │   1.032 │     1.0 │   1.04 ⋯
│ 5.18 hr │ 227.070705664 GHz │   0.988 │   1.025 │   1.025 │     1.0 │   1.07 ⋯
│       ⋮ │                 ⋮ │       ⋮ │       ⋮ │       ⋮ │       ⋮ │        ⋱
└─────────┴───────────────────┴─────────┴─────────┴─────────┴─────────┴─────────
                                                   3 columns and 10 rows omitted
…
